[gd_scene load_steps=2 format=2]

[ext_resource path="res://assets/umspannwerk.png" type="Texture" id=1]

[node name="Umspannwerk" type="Sprite"]

position = Vector2( 500, 319 )
texture = ExtResource( 1 )


